<svg xmlns="http://www.w3.org/2000/svg" width="6.437" height="10.31" viewBox="0 0 6.437 10.31">
  <defs>
    <style>
      .cls-1 {
        fill: #fff;
        fill-rule: evenodd;
      }
    </style>
  </defs>
  <path id="Forma_1" data-name="Forma 1" class="cls-1" d="M830.175,1691.66l-1.22,1.21,4.006,3.95-4.006,3.95,1.22,1.21,5.225-5.16Z" transform="translate(-828.969 -1691.66)"/>
</svg>
